.........................
----------------------------------------------------------------------
Ran 25 tests in 159.514s

OK
Name             Stmts   Miss Branch BrPart  Cover   Missing
------------------------------------------------------------
Collatz.py          38      1     16      1    96%   103->104, 104
TestCollatz.py     111      0      0      0   100%
------------------------------------------------------------
TOTAL              149      1     16      1    99%
