..........................
----------------------------------------------------------------------
Ran 26 tests in 0.735s

OK
Name             Stmts   Miss Branch BrPart  Cover   Missing
------------------------------------------------------------
Collatz.py          51      0     18      0   100%
TestCollatz.py      99      0      0      0   100%
------------------------------------------------------------
TOTAL              150      0     18      0   100%
