................
----------------------------------------------------------------------
Ran 16 tests in 0.318s

OK
Name             Stmts   Miss Branch BrPart  Cover   Missing
------------------------------------------------------------
Collatz.py          63      0     18      0   100%
TestCollatz.py      74      0      0      0   100%
------------------------------------------------------------
TOTAL              137      0     18      0   100%
