......................
----------------------------------------------------------------------
Ran 22 tests in 0.886s

OK
Name             Stmts   Miss Branch BrPart  Cover   Missing
------------------------------------------------------------
Collatz.py          68      0     34      0   100%
TestCollatz.py      89      0      0      0   100%
------------------------------------------------------------
TOTAL              157      0     34      0   100%
