1 10 20
100 200 125
201 210 89
900 1000 174
3 30 112
30 3 112
200 2 125
1 1 1
999999 999999 259
600000 600100 372
500001 500003 113
50 5000 238
15 1500 182
600 6 144
700 7 145
7 700 145
2 2 2
2 1 2
1 2 2
8 18 21
22 5 21
1997 25 182
1998 512 182
5 12 20
2019 3650 217
889 1997 182
5612 3641 238
1234 5678 238
123456 126789 331
22 6987 262
456 9856 262
12598 65489 340
800000 800500 375
126 896 179
56 963 179
456 789 171
4587 69854 340
15 789 171
2009 8 182
645 2369 183
12 159 122
984900 985632 427
3 456 144
4 567 144
5 678 145
6 789 171
7 891 179
8 912 179
9 12123 268
123 1 119
234 2 128
345 3 144
456 4 144
567 5 144
678 6 145
789 7 171
891 8 179
912 9 179
1012 10 179
1102 11 179
1124 24 179
5689 456 238
5412 4849 210
1854 1945 175
1119 1944 182
8796 1654 262
13 1569 182
4658 9789 262
4567 5000 210
1000 1100 169
1450 1550 172
1550 1650 167
1650 1750 180
1750 1850 162
1850 1950 175
1950 2050 175
2065 6502 262
6502 3654 262
1469 7545 262
5626 3652 238
845 659 171
450 650 145
650 750 171
750 850 153
850 950 179
950 1050 156
1050 1150 169
1150 1250 182
1250 1350 177
1424 1524 172
1624 1724 180
17224 18565 279
14598 24546 282
15664 16789 266
156448 156464 295
887 998 174
667 557 145
447 337 134
227 117 125
156 124 122
102 198 125
154 498 144
154 898 179
653 963 179
741 852 153
963 741 179
147 258 128
369 951 179
159 357 144
753 486 171
128 426 144
759 486 171
654 351 145
